<?xml version="1.0" encoding="UTF-8"?>
<svg width="16.933mm" height="12.783mm" version="1.1" viewBox="0 0 16.933 12.783" xmlns="http://www.w3.org/2000/svg" xmlns:cc="http://creativecommons.org/ns#" xmlns:dc="http://purl.org/dc/elements/1.1/" xmlns:rdf="http://www.w3.org/1999/02/22-rdf-syntax-ns#">
 <metadata>
  <rdf:RDF>
   <cc:Work rdf:about="">
    <dc:format>image/svg+xml</dc:format>
    <dc:type rdf:resource="http://purl.org/dc/dcmitype/StillImage"/>
    <dc:title/>
   </cc:Work>
  </rdf:RDF>
 </metadata>
 <g transform="translate(-41.477 -21.86)">
  <g fill="#fff" stroke-width=".59624" aria-label="⏯">
   <path d="m41.477 34.644v-12.783l7.0834 6.3679zm8.0374 0v-12.783h3.0766v12.783zm5.8194 0v-12.783h3.0766v12.783z" fill="#fff" stroke-width=".59624"/>
  </g>
 </g>
</svg>
